Rick e Morty Series
…
Cosa  sta analisi? Spieghiamo

Bigram analysis

Bigram analysis

Spieghiamo delle analisi possibili sui bigrams

Grafico che NON HO FATTO CODDUE SULLE COPPIE pi presenti

TF-IDF

Spieghiamo a che serve e mostriamo i maggiori presenti per argomento

## # A tibble: 12,261 x 6
##    Season bigram               n      tf   idf  tf_idf
##     <dbl> <chr>            <int>   <dbl> <dbl>   <dbl>
##  1      2 tiny rick           24 0.00794  1.61 0.0128 
##  2      2 personal space      16 0.00529  1.61 0.00852
##  3      1 morty jr            14 0.00466  1.61 0.00749
##  4      1 hut hut             11 0.00366  1.61 0.00589
##  5      2 jan michael         11 0.00364  1.61 0.00585
##  6      5 decoy family        10 0.00341  1.61 0.00549
##  7      5 kid enjoy           10 0.00341  1.61 0.00549
##  8      5 kid resynced        10 0.00341  1.61 0.00549
##  9      2 shrimply pibbles    10 0.00331  1.61 0.00532
## 10      4 double cross         8 0.00301  1.61 0.00484
## # ... with 12,251 more rows
…
